<svg width="24" height="24" viewBox="0 0 24 24" fill="none" xmlns="http://www.w3.org/2000/svg">
<path d="M11.9987 7.99997C12.2324 7.99951 12.4588 8.08089 12.6387 8.22997L18.6387 13.23C18.843 13.3997 18.9714 13.6436 18.9958 13.908C19.0201 14.1725 18.9385 14.4358 18.7687 14.64C18.599 14.8442 18.3551 14.9726 18.0907 14.997C17.8262 15.0214 17.563 14.9397 17.3587 14.77L11.9987 10.29L6.63875 14.61C6.53646 14.693 6.41876 14.7551 6.29242 14.7925C6.16609 14.8299 6.03359 14.842 5.90257 14.8281C5.77154 14.8141 5.64456 14.7744 5.52892 14.7113C5.41328 14.6481 5.31127 14.5627 5.22875 14.46C5.13717 14.3571 5.06781 14.2365 5.02502 14.1056C4.98222 13.9748 4.96692 13.8365 4.98006 13.6994C4.99321 13.5623 5.03451 13.4295 5.1014 13.3091C5.16828 13.1888 5.2593 13.0835 5.36875 13L11.3687 8.16997C11.5538 8.04445 11.7756 7.9846 11.9987 7.99997Z" fill="#EC008C"/>
</svg>
