<svg width="32" height="32" viewBox="0 0 32 32" fill="none" xmlns="http://www.w3.org/2000/svg">
<path d="M26.6663 8L11.9997 22.6667L5.33301 16" stroke="white" stroke-width="3" stroke-linecap="round" stroke-linejoin="round"/>
</svg>
