<svg width="32" height="32" viewBox="0 0 32 32" fill="none" xmlns="http://www.w3.org/2000/svg">
<circle cx="16" cy="16" r="16" fill="white"/>
<path d="M15.1042 24.0254L15.1081 24.0278C15.3762 24.1925 15.6848 24.28 16 24.28C16.3153 24.28 16.6239 24.1925 16.892 24.0278L16.892 24.0278L16.8959 24.0254C20.1104 22.0308 21.9483 20.0042 22.9782 18.2009C24.0112 16.3922 24.2 14.8626 24.2 13.9173C24.2 11.3773 22.1395 9.32001 19.6 9.32001C18.2548 9.32001 17.128 10.0449 16.4129 10.6431C16.2629 10.7686 16.1249 10.8937 16 11.0134C15.8752 10.8937 15.7372 10.7686 15.5872 10.6431C14.8721 10.0449 13.7453 9.32001 12.4 9.32001C9.86064 9.32001 7.80005 11.3773 7.80005 13.9173C7.80005 14.8626 7.98892 16.3922 9.02185 18.2009C10.0517 20.0042 11.8897 22.0308 15.1042 24.0254Z" fill="#EC008C" stroke="#EC008C" stroke-width="2" stroke-linecap="round" stroke-linejoin="round"/>
</svg>
