<svg width="32" height="32" viewBox="0 0 32 32" fill="none" xmlns="http://www.w3.org/2000/svg">
<path d="M5.33464 5.3335C4.09464 5.3335 3.05772 6.19071 2.76172 7.3387L16.0013 15.6356L29.2487 7.36214C28.9607 6.20081 27.9173 5.3335 26.668 5.3335H5.33464ZM2.66797 10.3127V24.0002C2.66797 25.4708 3.86397 26.6668 5.33463 26.6668H26.668C28.1386 26.6668 29.3346 25.4708 29.3346 24.0002V10.3413L16.0013 18.6668L2.66797 10.3127Z" fill="#EC008C"/>
</svg>
